%YAML 1.1
%TAG !u! tag:unity3d.com,2011:
--- !u!1045 &1
EditorBuildSettings:
  m_ObjectHideFlags: 0
  serializedVersion: 2
  m_Scenes:
  - enabled: 1
    path: Assets/Scenes/MainMenu.unity
    guid: 78c8d83362838e340a5c7c9ecbc35cc1
  - enabled: 1
    path: Assets/Scenes/Story.unity
    guid: 43af79fc91be55f4e944065669e2b4cd
  - enabled: 1
    path: Assets/Scenes/Firstlevel.unity
    guid: 55e64d2906c96914cbd0260183c5ea39
  - enabled: 1
    path: Assets/Scenes/Ending.unity
    guid: 5b3142879d44bfc40a7233a4d28ba267
  - enabled: 1
    path: Assets/Scenes/StageSelect.unity
    guid: f1e0c3554fe545a41820feabccc5e2bc
